Modeling
…
Fit workflow to CV folds.

class_wkf_folds <- tree_workflow |>
  tune_grid(resamples = diabetes_5fold,
            metrics = metric_set(mn_log_loss),
            grid = tree_grid)

class_wkf_folds |>
  collect_metrics() |>
  arrange(mean)

# A tibble: 50 × 8
   cost_complexity tree_depth .metric     .estimator  mean     n std_err .config
             <dbl>      <int> <chr>       <chr>      <dbl> <int>   <dbl> <chr>  
 1    0.0000000001         11 mn_log_loss binary     0.334     5 0.00236 pre0_m…
 2    0.000000001          11 mn_log_loss binary     0.334     5 0.00236 pre0_m…
 3    0.00000001           11 mn_log_loss binary     0.334     5 0.00236 pre0_m…
 4    0.0000001            11 mn_log_loss binary     0.334     5 0.00236 pre0_m…
 5    0.000001             11 mn_log_loss binary     0.334     5 0.00236 pre0_m…
 6    0.00001              11 mn_log_loss binary     0.335     5 0.00263 pre0_m…
 7    0.0000000001          8 mn_log_loss binary     0.336     5 0.00136 pre0_m…
 8    0.000000001           8 mn_log_loss binary     0.336     5 0.00136 pre0_m…
 9    0.00000001            8 mn_log_loss binary     0.336     5 0.00136 pre0_m…
10    0.0000001             8 mn_log_loss binary     0.336     5 0.00136 pre0_m…
# ℹ 40 more rows
…
